module github.com/devnw/conductors

go 1.14

require (
	github.com/devnw/alog v1.0.1
	github.com/devnw/atomizer v0.0.0-20200425014640-bf9d01a48c35
	github.com/google/uuid v1.1.1
	github.com/pkg/errors v0.9.1
	github.com/streadway/amqp v0.0.0-20200108173154-1c71cc93ed71
)
